 #First column: r, Second column: PDF with f(k), Third column: PDF with f(k)=1
   0.0000000000000000        0.0000000000000000        0.0000000000000000     
   2.0000000000000000E-002  -8.6860359553998220E-002 -0.22467936354321760     
   4.0000000000000001E-002 -0.13686014197542182      -0.32382368053054345     
   5.9999999999999998E-002 -0.13192170169775738      -0.24778537065793946     
   8.0000000000000002E-002  -8.2327523586981602E-002  -5.2994017932970490E-002
  0.10000000000000001       -2.2141315161279904E-002  0.13183615422247416     
  0.12000000000000000        7.7488569358639837E-003  0.18332247603164512     
  0.14000000000000001       -1.9055139832628784E-002   5.8233091088269240E-002
  0.16000000000000000       -9.9554164475275667E-002 -0.17967759414283127     
  0.17999999999999999      -0.20115446627423281      -0.39738968747900871     
  0.20000000000000001      -0.27746580351235278      -0.47267222090680749     
  0.22000000000000000      -0.29291266721147308      -0.36849390083999140     
  0.23999999999999999      -0.24342519818952127      -0.15669469567316449     
  0.26000000000000001      -0.16129439833316847        2.4088791365972508E-002
  0.28000000000000003       -9.9878227332577244E-002   5.1727434418148498E-002
  0.29999999999999999      -0.10483062438909355      -0.10468763410869046     
  0.32000000000000001      -0.18701817638037288      -0.36418754547531723     
  0.34000000000000002      -0.31300886099502256      -0.58091155298485275     
  0.35999999999999999      -0.42052370893734259      -0.63164155455478410     
  0.38000000000000000      -0.45237905599517564      -0.49164359804015290     
  0.40000000000000002      -0.39079006308245856      -0.25244166330295170     
  0.41999999999999998      -0.27169806083251508       -6.9187005199084883E-002
  0.44000000000000000      -0.16849197581748132       -6.7648746425946607E-002
  0.46000000000000002      -0.15168342825068795      -0.26620630640628362     
  0.47999999999999998      -0.24625761866116402      -0.56081457111349087     
  0.50000000000000000      -0.41215017397016401      -0.78425221721024096     
  0.52000000000000002      -0.56204264069869869      -0.80625733060579086     
  0.54000000000000004      -0.60958892950562471      -0.61510041912596880     
  0.56000000000000005      -0.52200686165639254      -0.33010358897455017     
  0.57999999999999996      -0.34555978923008285      -0.13447370395838562     
  0.59999999999999998      -0.18559159256018290      -0.16575400975780824     
  0.62000000000000000      -0.14846416990273051      -0.42866228535190520     
  0.64000000000000001      -0.27669839194364648      -0.78464914663462415     
  0.66000000000000003      -0.51609276066989729       -1.0287297891318539     
  0.68000000000000005      -0.73830309757977619       -1.0117448628126726     
  0.69999999999999996      -0.81118555979536666      -0.73623856543380284     
  0.71999999999999997      -0.67935782463521888      -0.36578044060206993     
  0.73999999999999999      -0.40712571712256179      -0.13614590447931385     
  0.76000000000000001      -0.15344524269018320      -0.21539545932955090     
  0.78000000000000003       -8.6320709492158518E-002 -0.59415149221055863     
  0.80000000000000004      -0.28143061444706674       -1.0752702117381263     
  0.81999999999999995      -0.66437658294150759       -1.3776908084269308     
  0.83999999999999997       -1.0366323549496479       -1.3017349788878640     
  0.85999999999999999       -1.1799285264646915      -0.86136659178084118     
  0.88000000000000000      -0.98652571841078285      -0.29938992350938082     
  0.90000000000000002      -0.54120544261487014        3.7663873960054974E-002
  0.92000000000000004      -0.10011511275455193       -9.1843338014041820E-002
  0.93999999999999995        3.5222587742326776E-002 -0.64442129016044214     
  0.95999999999999996      -0.30937072667567278       -1.2483174168827100     
  0.97999999999999998       -1.0523868123922053       -1.3417817607610565     
   1.0000000000000000       -1.8490065863253360      -0.44212506104860483     
   1.0200000000000000       -2.2223356940053272        1.5809539241647641     
   1.0400000000000000       -1.7789455925597668        4.3690569525624507     
   1.0600000000000001      -0.40582833935568641        7.1589442630659237     
   1.0800000000000001        1.6504806167837869        9.0650026585219177     
   1.1000000000000001        3.8657910716595612        9.4393239604860426     
   1.1200000000000001        5.6440786871268056        8.1451800562752350     
   1.1399999999999999        6.5480846957488987        5.6161515288860553     
   1.1599999999999999        6.4451889399115752        2.6726196157911062     
   1.1799999999999999        5.5062739181436449       0.18100388765654388     
   1.2000000000000000        4.0743650892067951       -1.2870360090293791     
   1.2200000000000000        2.4871431064511187       -1.6430351731744388     
   1.2400000000000000       0.95564100590356871       -1.2429913029733761     
   1.2600000000000000      -0.43931839399570460      -0.65702165019240910     
   1.2800000000000000       -1.6474190034974121      -0.37091503807083498     
   1.3000000000000000       -2.5272122206120438      -0.56651348401301416     
   1.3200000000000001       -2.8014232498887792       -1.0784834016151394     
   1.3400000000000001       -2.1438436328176103       -1.5312545470557550     
   1.3600000000000001      -0.36980811324978446       -1.5708488629489274     
   1.3799999999999999        2.3715944061144403       -1.0660299451675748     
   1.3999999999999999        5.5256585555280537      -0.17859274694274827     
   1.4199999999999999        8.2526885293058410       0.72358683325566697     
   1.4399999999999999        9.7157346555950959        1.2555526202971965     
   1.4600000000000000        9.4159539170219642        1.2036223727644557     
   1.4800000000000000        7.4176271577104487       0.61852185769387003     
   1.5000000000000000        4.3465939381228704      -0.22589870635665660     
   1.5200000000000000        1.1501353325863559      -0.97684737217632667     
   1.5400000000000000       -1.2786610596234580       -1.3694074021291378     
   1.5600000000000001       -2.4423272691921940       -1.3319940440058797     
   1.5800000000000001       -2.3930660020565426      -0.98571496980236373     
   1.6000000000000001       -1.6380916997120485      -0.55109595805097400     
   1.6200000000000001      -0.85512400260315258      -0.22102376944190660     
   1.6399999999999999      -0.56436497215765302       -6.9108574042733836E-002
   1.6599999999999999      -0.91488017334433347       -3.6073961830363613E-002
   1.6799999999999999       -1.6760404989403781        9.1321713665496324E-003
   1.7000000000000000       -2.4163315764008786       0.17594988803264647     
   1.7200000000000000       -2.7598626450996306       0.48136900511145020     
   1.7400000000000000       -2.5815814658463743       0.83828740149317416     
   1.7600000000000000       -2.0467087089864271        1.1038453299835556     
   1.7800000000000000       -1.4900349243178093        1.1560262771774641     
   1.8000000000000000       -1.2158192941639625       0.95483695027346194     
   1.8200000000000001       -1.3342313669935364       0.55722816521945440     
   1.8400000000000001       -1.7203056872676847        8.2999368201476090E-002
   1.8600000000000001       -2.1071245292758465      -0.34466684828283556     
   1.8799999999999999       -2.2500264168961146      -0.64990188367981128     
   1.8999999999999999       -2.0642332135967281      -0.82134375324002351     
   1.9199999999999999       -1.6606226515648368      -0.89292548553085482     
   1.9399999999999999       -1.2672000044645573      -0.90601611080752975     
   1.9600000000000000       -1.0893285284624568      -0.87861952131823318     
   1.9800000000000000       -1.1929400811901161      -0.79944459169697391     
   2.0000000000000000       -1.4762741663751355      -0.64717933683512652     
   2.0200000000000000       -1.7407794023207486      -0.41942708965768910     
   2.0400000000000000       -1.8140724236604655      -0.15074155241256451     
   2.0600000000000001       -1.6504879768406062        9.2867169474978417E-002
   2.0800000000000001       -1.3518307485194978       0.24038813764438063     
   2.1000000000000001       -1.1002843627247847       0.24777755779632327     
   2.1200000000000001       -1.0469127411368002       0.11698034420393469     
   2.1400000000000001       -1.2229092560156798      -0.10835127903519851     
   2.1600000000000001       -1.5242986949783195      -0.36698464854381951     
   2.1800000000000002       -1.7756380630288175      -0.60954857847611588     
   2.2000000000000002       -1.8320241456101702      -0.81678008354308329     
   2.2200000000000002       -1.6584274925800515      -0.99781698697341137     
   2.2400000000000002       -1.3417246599189414       -1.1721325510089229     
   2.2599999999999998       -1.0325578978004417       -1.3481095333790438     
   2.2799999999999998      -0.85560106103311340       -1.5122911497806926     
   2.2999999999999998      -0.84342872985663331       -1.6358438119179559     
   2.3199999999999998      -0.93206503086859505       -1.6936149590087421     
   2.3399999999999999       -1.0168942479224796       -1.6832139813971063     
   2.3599999999999999       -1.0303647584171165       -1.6314605317695985     
   2.3799999999999999      -0.99030456831669256       -1.5831768144157672     
   2.3999999999999999      -0.98689725552165142       -1.5779447108290181     
   2.4199999999999999       -1.1153648691665157       -1.6277759204463058     
   2.4399999999999999       -1.3963307353369236       -1.7084418294583286     
   2.4600000000000000       -1.7354526085295034       -1.7697383555179720     
   2.4800000000000000       -1.9521929090751320       -1.7596212567059495     
   2.5000000000000000       -1.8671544952610855       -1.6497964186205292     
   2.5200000000000000       -1.4019688681772824       -1.4499163281754202     
   2.5400000000000000      -0.63609341729641244       -1.2039122034728642     
   2.5600000000000001       0.21313808808453716      -0.97133757867462889     
   2.5800000000000001       0.87968047294994067      -0.80371736772244329     
   2.6000000000000001        1.1625042969030943      -0.72721775094059138     
   2.6200000000000001        1.0067991768924338      -0.73837686557421012     
   2.6400000000000001       0.51413576573807307      -0.81227530827159256     
   2.6600000000000001      -0.11854892466173850      -0.91665569557218940     
   2.6800000000000002      -0.69488296602835109       -1.0240494520509684     
   2.7000000000000002       -1.0989650517699605       -1.1170146857756014     
   2.7200000000000002       -1.3219651696216583       -1.1866514819528577     
   2.7400000000000002       -1.4306018776159826       -1.2283513768359031     
   2.7599999999999998       -1.5044801689105907       -1.2392019597277115     
   2.7799999999999998       -1.5826883865519659       -1.2188806367483758     
   2.7999999999999998       -1.6491018068520533       -1.1724085070750463     
   2.8199999999999998       -1.6590012435666466       -1.1113063899057611     
   2.8399999999999999       -1.5839806803050271       -1.0506996778585693     
   2.8599999999999999       -1.4428497369772937       -1.0029490486899286     
   2.8799999999999999       -1.2977243085299144      -0.97125906148243901     
   2.8999999999999999       -1.2183613490088452      -0.94737587842646132     
   2.9199999999999999       -1.2385907322956775      -0.91535576586860745     
   2.9399999999999999       -1.3336031298662931      -0.85975393993609739     
   2.9600000000000000       -1.4333432627109643      -0.77375943266148084     
   2.9800000000000000       -1.4642628512649356      -0.66263324870505580     
   3.0000000000000000       -1.3937533743010522      -0.54048972856402910     
   3.0200000000000000       -1.2497948067979818      -0.42239706336219068     
   3.0400000000000000       -1.1036397612345454      -0.31655800016991781     
   3.0600000000000001       -1.0260976342649670      -0.22124674135080713     
   3.0800000000000001       -1.0441348498921146      -0.12825590951462870     
   3.1000000000000001       -1.1242224641300138       -3.0617969491147284E-002
   3.1200000000000001       -1.1924545094093661        7.0267523569159482E-002
   3.1400000000000001       -1.1790668814270349       0.16264740004083120     
   3.1600000000000001       -1.0602746577100224       0.22903402115156754     
   3.1800000000000002      -0.87216974002989534       0.25491649560931212     
   3.2000000000000002      -0.68851388392018498       0.23656828452470169     
   3.2200000000000002      -0.57612903288857342       0.18344759757646770     
   3.2400000000000002      -0.55496468873700200       0.11383626872679316     
   3.2599999999999998      -0.58682820893912002        4.6269144116538839E-002
   3.2799999999999998      -0.59924903463878199       -8.3543650880763438E-003
   3.2999999999999998      -0.52973332884965729       -4.9663432510570468E-002
   3.3199999999999998      -0.36357155669849484       -8.4486129823065775E-002
   3.3399999999999999      -0.14255725370070774      -0.11976805692634944     
   3.3599999999999999        6.0265508504506168E-002 -0.15630752425256830     
   3.3799999999999999       0.18423791859076841      -0.18716662159249531     
   3.3999999999999999       0.21667856381378955      -0.20160701260378683     
   3.4199999999999999       0.19918773868797690      -0.19195984935273311     
   3.4399999999999999       0.20129768076384702      -0.15905762489157044     
   3.4600000000000000       0.27776232663515538      -0.11277461999583992     
   3.4800000000000000       0.43538384342720549       -6.7234972619900205E-002
   3.5000000000000000       0.62918561612114321       -3.3495336655136911E-002
   3.5200000000000000       0.78983347942334303       -1.4025986320062932E-002
   3.5400000000000000       0.86540070159099336       -2.2102900890641798E-003
   3.5600000000000001       0.85218128175945873        1.2939700225102758E-002
   3.5800000000000001       0.79618158249465742        3.9750411581916223E-002
   3.6000000000000001       0.76479196176333819        7.8749704500843107E-002
   3.6200000000000001       0.80606806636767026       0.12241533286151944     
   3.6400000000000001       0.92025914175500623       0.15981713060734806     
   3.6600000000000001        1.0605202904635054       0.18323911989130751     
   3.6800000000000002        1.1619670694392983       0.19275176911998310     
   3.7000000000000002        1.1811983084279067       0.19602504069155835     
   3.7200000000000002        1.1223582474961398       0.20358803843261150     
   3.7400000000000002        1.0342276771181957       0.22247110056161998     
   3.7599999999999998       0.98047189352080510       0.25207840470414045     
   3.7799999999999998        1.0013008776940266       0.28472372198861073     
   3.7999999999999998        1.0897314028673302       0.31041495789011825     
   3.8199999999999998        1.1965562822898388       0.32293111978977213     
   3.8399999999999999        1.2606666411126455       0.32351736138439474     
   3.8599999999999999        1.2461505458875866       0.32002466068170171     
   3.8799999999999999        1.1637392075761988       0.32209672427782438     
   3.8999999999999999        1.0638695199655483       0.33536782676607707     
   3.9199999999999999        1.0058779567764264       0.35817329626844102     
   3.9399999999999999        1.0221646131446407       0.38270176419821450     
   3.9600000000000000        1.0989800026198813       0.39981873526228356     
   3.9800000000000000        1.1852318353310320       0.40460460285460498     
   4.0000000000000000        1.2237082853013033       0.39927744037856427     
   4.0199999999999996        1.1856777361184587       0.39179980544239656     
   4.0400000000000000        1.0879985549647360       0.39108427537156959     
   4.0599999999999996       0.98262388727621519       0.40172839204907779     
   4.0800000000000001       0.92510500379473759       0.42143091825342188     
   4.0999999999999996       0.94125711813964696       0.44257183080371670     
   4.1200000000000001        1.0120452778446112       0.45691690174406474     
   4.1399999999999997        1.0855695574598041       0.46056180856335194     
   4.1600000000000001        1.1086385001862180       0.45615182997384740     
   4.1799999999999997        1.0587336373887666       0.45111113100275979     
   4.2000000000000002       0.95715877565717755       0.45303508696093187     
   4.2199999999999998       0.85570529718535104       0.46507433756873484     
   4.2400000000000002       0.80517601115713444       0.48408171771992076     
   4.2599999999999998       0.82491398948614092       0.50257452832931726     
   4.2800000000000002       0.89164337543489514       0.51325169025481465     
   4.2999999999999998       0.95408933824430031       0.51329934366121832     
   4.3200000000000003       0.96425702719129169       0.50590668099539948     
   4.3399999999999999       0.90633701936404820       0.49814723860684501     
   4.3600000000000003       0.80586481586770231       0.49658496044750661     
   4.3799999999999999       0.71385878309465689       0.50330362396619222     
   4.4000000000000004       0.67579041367438153       0.51474457972595122     
   4.4199999999999999       0.70425890783640166       0.52399364936183090     
   4.4400000000000004       0.77178950780822730       0.52506274615092730     
   4.4600000000000000       0.82786072661943466       0.51653516248077869     
   4.4800000000000004       0.82961932526776405       0.50237755875779044     
   4.5000000000000000       0.76761309772796782       0.48947468567662622     
   4.5199999999999996       0.67108477070213546       0.48343302388408887     
   4.5400000000000000       0.58986355423969972       0.48522133087275604     
   4.5599999999999996       0.56403314627704537       0.49066916038838593     
   4.5800000000000001       0.59980460413090519       0.49308498013906737     
   4.5999999999999996       0.66608367267386703       0.48736536623794019     
   4.6200000000000001       0.71358840811717217       0.47308895988245098     
   4.6399999999999997       0.70475247024168264       0.45473759781904965     
   4.6600000000000001       0.63626468570368078       0.43894771456421222     
   4.6799999999999997       0.54072156972204410       0.43048911824563335     
   4.7000000000000002       0.46660448210608990       0.42941331450377984     
   4.7199999999999998       0.44887545762112230       0.43107597855948226     
   4.7400000000000002       0.48802269405266507       0.42898400775900253     
   4.7599999999999998       0.55011397282606100       0.41871811767623757     
   4.7800000000000002       0.58762030215767003       0.40055939371684390     
   4.7999999999999998       0.56824370153114823       0.37926117666891884     
   4.8200000000000003       0.49427602409392152       0.36114556679183302     
   4.8399999999999999       0.40089417600595140       0.35030758314831228     
   4.8600000000000003       0.33461491844036240       0.34621763004441142     
   4.8799999999999999       0.32509308650452462       0.34413656474054349     
   4.9000000000000004       0.36734426874859460       0.33804606743220367     
   4.9199999999999999       0.42503063299076604       0.32429221516668189     
   4.9400000000000004       0.45264704066869971       0.30374302875712672     
   4.9600000000000000       0.42306241589357174       0.28119163552256632     
   4.9800000000000004       0.34375980450184423       0.26241393794670470     
   5.0000000000000000       0.25207919340011686       0.25069250162915047     
   5.0199999999999996       0.19251195708066429       0.24490785080101435     
   5.0400000000000000       0.18988842128617919       0.24031899814452262     
   5.0599999999999996       0.23465161758592157       0.23151711624654914     
   5.0800000000000001       0.28897996030996009       0.21573617983480264     
   5.0999999999999996       0.30987751292635096       0.19451893165810080     
   5.1200000000000001       0.27516183793254362       0.17275900380499246     
   5.1399999999999997       0.19666449869067842       0.15573537711404736     
   5.1600000000000001       0.11281180127692554       0.14595410843081008     
   5.1799999999999997        6.5252041871037614E-002  0.14169942853256445     
   5.2000000000000002        7.3763549581702725E-002  0.13813762424064524     
   5.2199999999999998       0.12457605065321804       0.13026851024215752     
   5.2400000000000002       0.17900749745090092       0.11592082267986507     
   5.2599999999999998       0.19700807405338261        9.6993090315031588E-002
   5.2800000000000002       0.16127298315431243        7.8228684845192673E-002
   5.2999999999999998        8.7387062299607701E-002   6.4309884423526767E-002
   5.3200000000000003        1.4032434062339507E-002   5.7052844020389695E-002
   5.3399999999999999       -2.0626721930790237E-002   5.4391164085882085E-002
   5.3600000000000003       -1.9923103332625007E-003   5.1725741484930719E-002
   5.3799999999999999        5.2389863116819077E-002   4.4779542184086578E-002
   5.4000000000000004       0.10375441659522097        3.2201859464172325E-002
   5.4199999999999999       0.11575217766058706        1.6348413416435930E-002
   5.4400000000000004        7.6396767885065747E-002   1.7940457363932554E-003
   5.4600000000000000        5.0782292594848686E-003  -7.4845951770215790E-003
   5.4800000000000004       -5.9456148801847734E-002  -1.0526997928281507E-002
   5.5000000000000000       -8.2717540047969509E-002  -9.9450535640445877E-003
   5.5199999999999996       -5.5311896186988202E-002  -1.0304437496000815E-002
   5.5400000000000000        1.5720348515355148E-003  -1.5340888856713810E-002
   5.5599999999999996        4.9207246211925272E-002  -2.5714508154726482E-002
   5.5800000000000001        5.4863303214603087E-002  -3.8657354444673282E-002
   5.5999999999999996        1.1519227291875900E-002  -4.9704824246543398E-002
   5.6200000000000001       -5.8125710630222961E-002  -5.5435529351159571E-002
   5.6399999999999997      -0.11563311301997764       -5.5545822212866310E-002
   5.6600000000000001      -0.13019556285321893       -5.3008451597818113E-002
   5.6799999999999997       -9.7191185906644453E-002  -5.2241579553616857E-002
   5.7000000000000002       -4.0748961631071133E-002  -5.6422747498380325E-002
   5.7199999999999998        1.0890320551148404E-003  -6.5589430257468648E-002
   5.7400000000000002       -5.1176109913190397E-004  -7.6673439816973804E-002
   5.7599999999999998       -4.7828454670197404E-002  -8.5430384324645101E-002
   5.7800000000000002      -0.11544968739356122       -8.9073399012347843E-002
   5.7999999999999998      -0.16591516692244734       -8.8000644048080667E-002
   5.8200000000000003      -0.17252407966270975       -8.5566916292733330E-002
   5.8399999999999999      -0.13544394787852054       -8.6043546017773045E-002
   5.8600000000000003       -8.1408919669888780E-002  -9.2009791391875817E-002
   5.8799999999999999       -4.7301660241330853E-002 -0.10275878541336476     
   5.9000000000000004       -5.7671088171900801E-002 -0.11468166173780014     
   5.9199999999999999      -0.10984669674478857      -0.12339580825166324     
   5.9400000000000004      -0.17562713667483637      -0.12633417030545530     
   5.9600000000000000      -0.21843385609629687      -0.12424320630527193     
   5.9800000000000004      -0.21546672827095023      -0.12070304751986972     
   6.0000000000000000      -0.17143090863233079      -0.11997549231495168     
   6.0199999999999996      -0.11557724144581255      -0.12448191872486704     
   6.0400000000000000       -8.3933439883605243E-002 -0.13341753624839717     
   6.0599999999999996       -9.7541868080862251E-002 -0.14330717550731684     
   6.0800000000000001      -0.14986687343006275      -0.15013356572838529     
   6.0999999999999996      -0.21091401986673866      -0.15173362119732750     
   6.1200000000000001      -0.24546324066386435      -0.14902087990845070     
   6.1399999999999997      -0.23431432535037533      -0.14532448395346684     
   6.1600000000000001      -0.18570272704406193      -0.14428360155687461     
   6.1799999999999997      -0.13007180977748864      -0.14760231828141804     
   6.2000000000000002      -0.10148880058196516      -0.15403424888882317     
   6.2199999999999998      -0.11703434124185913      -0.16019962046190250     
   6.2400000000000002      -0.16663411692728830      -0.16271418069809451     
   6.2599999999999998      -0.21939587326836826      -0.16031374822077993     
   6.2800000000000002      -0.24249066159270627      -0.15467005932116989     
   6.2999999999999998      -0.22105910108376881      -0.14939896335774966     
   6.3200000000000003      -0.16708535844474395      -0.14786655691945089     
   6.3399999999999999      -0.11194175477915287      -0.15113055785340437     
   6.3600000000000003       -8.7228028107000852E-002 -0.15727138186683831     
   6.3799999999999999      -0.10558847379180414      -0.16252392680821273     
   6.4000000000000004      -0.15313356257286601      -0.16353059004849485     
   6.4199999999999999      -0.19799722968479230      -0.15935860481603656     
   6.4400000000000004      -0.20976203978013119      -0.15206763063601822     
   6.4600000000000000      -0.17792775335369870      -0.14548715782348237     
   6.4800000000000004      -0.11823509914248739      -0.14293856260482604     
   6.5000000000000000       -6.3062836135950803E-002 -0.14526627801250314     
   6.5199999999999996       -4.1776043568715608E-002 -0.15035115619267753     
   6.5400000000000000       -6.2961077219740494E-002 -0.15438678858219282     
   6.5599999999999996      -0.10929099857546720      -0.15414588391116457     
   6.5800000000000001      -0.14808036541867414      -0.14888057267126262     
   6.5999999999999996      -0.15108836065517239      -0.14073210795548446     
   6.6200000000000001      -0.11156631983371101      -0.13342525183621912     
   6.6399999999999997       -4.8263073813849193E-002 -0.13004587912020504     
   6.6600000000000001        5.9742180762945166E-003 -0.13123454267803905     
   6.6799999999999997        2.4053092149646620E-002 -0.13486122861747499     
   6.7000000000000002        9.2243841308085580E-004 -0.13734791218611267     
   6.7199999999999998       -4.3514176657244705E-002 -0.13582153690904497     
   6.7400000000000002       -7.6544436742055508E-002 -0.12979987885136554     
   6.7599999999999998       -7.2444246521784897E-002 -0.12141565738540276     
   6.7800000000000002       -2.7944998509308729E-002 -0.11407649738901658     
   6.7999999999999998        3.5926905191081361E-002 -0.11039607481083515     
   6.8200000000000003        8.6660172112929576E-002 -0.11065216420338876     
   6.8399999999999999        9.9898888577751990E-002 -0.11268658391138703     
   6.8600000000000003        7.4025761589709263E-002 -0.11327726474531334     
   6.8799999999999999        3.0931859593328462E-002 -0.11012470006244006     
   6.9000000000000004        2.6099547538056592E-003 -0.10323867594601158     
   6.9199999999999999        1.1764801163080688E-002  -9.4893426487904137E-002
   6.9400000000000004        5.8186665147725296E-002  -8.8199151102124160E-002
   6.9600000000000000       0.11907208338694059       -8.5177137344338710E-002
   6.9800000000000004       0.16299599525454317       -8.5517643235990079E-002
   7.0000000000000000       0.16899535354828529       -8.6773785319348831E-002
   7.0199999999999996       0.13919387611501766       -8.5865991367923999E-002
   7.0400000000000000        9.7377674344102799E-002  -8.0975940976025465E-002
   7.0599999999999996        7.4472633354737611E-002  -7.2676825932094277E-002
   7.0800000000000001        8.9786965010702199E-002  -6.3614047411941835E-002
   7.0999999999999996       0.13938865631872405       -5.6929698140748872E-002
   7.1200000000000001       0.19860595713993595       -5.4381905922974760E-002
   7.1399999999999997       0.23705914424895916       -5.5290557028055222E-002
   7.1600000000000001       0.23706405625713994       -5.6939686904614241E-002
   7.1799999999999997       0.20426027986518622       -5.6190472699190662E-002
   7.2000000000000002       0.16407843929214053       -5.1336524920153996E-002
   7.2199999999999998       0.14625555946402477       -4.3096752900249898E-002
   7.2400000000000002       0.16681941952575705       -3.4166364242964313E-002
   7.2599999999999998       0.21844210616473853       -2.7611891854076386E-002
   7.2800000000000002       0.27494823851740774       -2.5079759942330387E-002
   7.2999999999999998       0.30718201057377681       -2.5883253299419401E-002
   7.3200000000000003       0.30059287776783394       -2.7490927243738781E-002
   7.3399999999999999       0.26391644548871313       -2.7094004809494723E-002
   7.3600000000000003       0.22376446102368919       -2.3292029819423798E-002
   7.3799999999999999       0.20847393705832001       -1.6884297535352675E-002
   7.4000000000000004       0.23102681896738436       -1.0311230705159390E-002
   7.4199999999999999       0.28134918273909121       -6.1110992587851028E-003
   7.4400000000000004       0.33256948417919402       -5.3454293215022585E-003
   7.4600000000000000       0.35735834380523485       -6.9506005434456864E-003
   7.4800000000000004       0.34441284276404632       -8.3991773690183270E-003
   7.5000000000000000       0.30513087989911342       -7.2562094151473770E-003
   7.5199999999999996       0.26651711670288675       -2.6774278916662903E-003
   7.5400000000000000       0.25470961086952615        4.0603635880619195E-003
   7.5599999999999996       0.27915568798547480        1.0314055998830425E-002
   7.5800000000000001       0.32700563327320198        1.3653272901371551E-002
   7.5999999999999996       0.37104996099933873        1.3309565523912924E-002
   7.6200000000000001       0.38631082896582752        1.0627387533149514E-002
   7.6399999999999997       0.36519048399802734        8.2553556809111753E-003
   7.6600000000000001       0.32201108456120947        8.5737207278633581E-003
   7.6799999999999997       0.28425170433867070        1.2305198287891755E-002
   7.7000000000000002       0.27585381055762231        1.8134181309178318E-002
   7.7199999999999998       0.30273847926466890        2.3544508962290930E-002
   7.7400000000000002       0.34928872378549514        2.6353906932132104E-002
   7.7599999999999998       0.38787263831017005        2.6014783462321500E-002
   7.7800000000000002       0.39558475831167789        2.3906645317776511E-002
   7.7999999999999998       0.36804740973849381        2.2463205367369610E-002
   7.8200000000000003       0.32194396461575370        2.3679317784505376E-002
   7.8399999999999999       0.28481252434267196        2.7906200350463876E-002
   7.8600000000000003       0.27833895210752141        3.3654965435399302E-002
   7.8799999999999999       0.30528564594746188        3.8510289716307530E-002
   7.9000000000000004       0.34794048982123649        4.0586772836068999E-002
   7.9199999999999999       0.37896302244422841        3.9643731214393706E-002
   7.9400000000000004       0.37800380563948038        3.7194909397630531E-002
   7.9600000000000000       0.34401598865401234        3.5566211234630149E-002
   7.9800000000000004       0.29583401796849779        3.6488963603327845E-002
   8.0000000000000000       0.26072572387755721        4.0085455896440893E-002
   8.0199999999999996       0.25789621184968387        4.4850873742580052E-002
   8.0399999999999991       0.28693839538234500        4.8622163217168467E-002
   8.0600000000000005       0.32818469058042465        4.9926489562346077E-002
   8.0800000000000001       0.35468689078027871        4.8881462120708243E-002
   8.0999999999999996       0.34852684932266048        4.7104305786111890E-002
   8.1199999999999992       0.31158322577870301        4.6697870482086415E-002
   8.1400000000000006       0.26428253021361420        4.8942991517204805E-002
   8.1600000000000001       0.23315691404671804        5.3498982652099819E-002
   8.1799999999999997       0.23478757152749818        5.8596987600595424E-002
   8.1999999999999993       0.26585195677499790        6.2102560747386508E-002
   8.2200000000000006       0.30524908298455794        6.2796682968793524E-002
   8.2400000000000002       0.32694613440901499        6.1097545470087014E-002
   8.2599999999999998       0.31572204296856793        5.8791641704023762E-002
   8.2799999999999994       0.27628234266708579        5.7946999773870342E-002
   8.3000000000000007       0.23028391094863174        5.9674472924792388E-002
   8.3200000000000003       0.20314703229168593        6.3486952981878134E-002
   8.3399999999999999       0.20869022031979828        6.7634649311539549E-002
   8.3599999999999994       0.24088565950938839        7.0197732059482446E-002
   8.3800000000000008       0.27766723300060930        7.0260569067855674E-002
   8.4000000000000004       0.29440353277489784        6.8450821456785729E-002
   8.4199999999999999       0.27881954815078530        6.6522519159876808E-002
   8.4399999999999995       0.23832899964681037        6.6249742469005959E-002
   8.4600000000000009       0.19539093151422521        6.8317005306490250E-002
   8.4800000000000004       0.17378151068884187        7.1889408618560607E-002
   8.5000000000000000       0.18415519976685646        7.5124919900405526E-002
   8.5199999999999996       0.21764999766538917        7.6312082946246029E-002
   8.5399999999999991       0.25136795125242262        7.4933429696965870E-002
   8.5600000000000005       0.26234528532682383        7.2000915037949448E-002
   8.5800000000000001       0.24149912058799181        6.9455312619704529E-002
   8.5999999999999996       0.19909434223844352        6.8993786919102545E-002
   8.6199999999999992       0.15845411150613212        7.1039591370569796E-002
   8.6400000000000006       0.14177780997113607        7.4482276908339584E-002
   8.6600000000000001       0.15669621775016201        7.7348549888570636E-002
   8.6799999999999997       0.19170954589265193        7.7998200593791742E-002
   8.6999999999999993       0.22323685820287167        7.6120211041459523E-002
   8.7200000000000006       0.22995874451895498        7.2924860102831585E-002
   8.7400000000000002       0.20573412369297825        7.0414653087777848E-002
   8.7599999999999998       0.16327082438712626        7.0174559541325579E-002
   8.7799999999999994       0.12636122497800217        7.2412522464382179E-002
   8.8000000000000007       0.11542843077432761        7.5829219577874515E-002
   8.8200000000000003       0.13516098218850564        7.8394487354927725E-002
   8.8399999999999999       0.17171543964472202        7.8560680762832569E-002
   8.8599999999999994       0.20114474585619715        7.6181178106745254E-002
   8.8800000000000008       0.20390890437175521        7.2582582471530863E-002
   8.9000000000000004       0.17666425026797261        6.9751517829196280E-002
   8.9199999999999999       0.13421064426420978        6.9130838252564789E-002
   8.9399999999999995       0.10046103495083634        7.0753331053290597E-002
   8.9600000000000009        9.3944459392754934E-002   7.3234113466600428E-002
   8.9800000000000004       0.11663644990702814        7.4622543501088712E-002
   9.0000000000000000       0.15285787447144356        7.3595781020006121E-002
   9.0199999999999996       0.17886015901388674        7.0271914465990584E-002
   9.0399999999999991       0.17724511521519401        6.6152562075709964E-002
   9.0600000000000005       0.14746837153882375        6.3231302302755532E-002
   9.0800000000000001       0.10608586702422780        6.2806640437693254E-002
   9.0999999999999996        7.6640954710479978E-002   6.4713981662139750E-002
   9.1199999999999992        7.5362809907225603E-002   6.7435969164898218E-002
   9.1400000000000006       0.10135727657144852        6.9020265501501893E-002
   9.1600000000000001       0.13721479215200144        6.8248959740899090E-002
   9.1799999999999997       0.15962694382210274        6.5355794383444230E-002
   9.1999999999999993       0.15354219306041919        6.1863513818488557E-002
   9.2200000000000006       0.12127103264668104        5.9645393471620373E-002
   9.2400000000000002        8.1040064127957293E-002   5.9781157912035469E-002
   9.2599999999999998        5.5903518860581307E-002   6.1898099799684025E-002
   9.2799999999999994        5.9757489991798571E-002   6.4392732389037283E-002
   9.3000000000000007        8.8935397334088659E-002   6.5396717794562145E-002
   9.3200000000000003       0.12445835552463227        6.3903851543438445E-002
   9.3399999999999999       0.14354975812454199        6.0380460403118820E-002
   9.3599999999999994       0.13342183582079092        5.6494231379336263E-002
   9.3800000000000008        9.8989121001612015E-002   5.4126158896155165E-002
   9.4000000000000004        5.9862857408563057E-002   5.4258101732034721E-002
   9.4199999999999999        3.8475948084370486E-002   5.6398944258663188E-002
   9.4399999999999995        4.6541918388797669E-002   5.8886191500166905E-002
   9.4600000000000009        7.8031118829199719E-002   5.9875464080185709E-002
   9.4800000000000004       0.11287809587104022        5.8423069722322842E-002
   9.5000000000000000       0.12913515712200110        5.5018746484355431E-002
   9.5199999999999996       0.11619712856504637        5.1261518342274992E-002
   9.5399999999999991        8.1111024923869693E-002   4.8886159244329840E-002
   9.5600000000000005        4.4200873579842898E-002   4.8731295751650867E-002
   9.5800000000000001        2.6711403320589040E-002   5.0265151918057173E-002
   9.5999999999999996        3.7981347448177855E-002   5.1941350692886988E-002
   9.6199999999999992        6.9900036455083456E-002   5.2155912765237136E-002
   9.6400000000000006       0.10195518736944155        5.0220213410430238E-002
   9.6600000000000001       0.11375646889932366        4.6764785062282065E-002
   9.6799999999999997        9.7412829049006736E-002   4.3340293640752002E-002
   9.6999999999999993        6.2268509139638002E-002   4.1468659877097053E-002
   9.7200000000000006        2.9164554718111690E-002   4.1724664590358972E-002
   9.7400000000000002        1.7747869684084074E-002   4.3401664883727591E-002
   9.7599999999999998        3.4545086527425238E-002   4.4955067831230523E-002
   9.7799999999999994        6.9024284056146953E-002   4.4945201456005363E-002
   9.8000000000000007       0.10000287866004011        4.2903201869078408E-002
   9.8200000000000003       0.10848706599542847        3.9597190903953694E-002
   9.8399999999999999        8.9148997736867075E-002   3.6544859913681206E-002
   9.8599999999999994        5.3500410069858347E-002   3.5076335097407707E-002
   9.8800000000000008        2.2871200506773635E-002   3.5520383507187531E-002
   9.9000000000000004        1.5476737406864031E-002   3.7006878069454727E-002
   9.9199999999999999        3.5418132275137709E-002   3.8000793675434366E-002
   9.9399999999999995        7.0261677646095158E-002   3.7238869715409954E-002
   9.9600000000000009        9.8630340540244374E-002   3.4498502787603705E-002
   9.9800000000000004       0.10318027345529583        3.0733760498464779E-002
   10.000000000000000        8.1096570243859717E-002   2.7499241588608756E-002
   10.020000000000000        4.5771801081510660E-002   2.6013632112216398E-002
   10.039999999999999        1.8684129234737439E-002   2.6430539738979273E-002
   10.060000000000000        1.6417193785373652E-002   2.7755843860505700E-002
   10.080000000000000        4.0677840428000482E-002   2.8458210708979893E-002
   10.100000000000000        7.7322746625787447E-002   2.7401122984442149E-002
   10.119999999999999       0.10493777944553508        2.4532984079066039E-002
   10.140000000000001       0.10774508540621347        2.0920478237679251E-002
   10.160000000000000        8.5029317434035398E-002   1.8107563918304752E-002
   10.180000000000000        5.1420725764974230E-002   1.7187661569351444E-002
   10.199999999999999        2.7927272612202219E-002   1.8146373504201330E-002
   10.220000000000001        2.9195480915424669E-002   1.9866509966724417E-002
   10.240000000000000        5.4722989478495229E-002   2.0788475676883987E-002
   10.260000000000000        8.9307100965200170E-002   1.9828163015833018E-002
   10.279999999999999       0.11239360285477451        1.7005163397454653E-002
   10.300000000000001       0.11060569034206652        1.3412841990324054E-002
   10.320000000000000        8.5840472354785799E-002   1.0557757872922164E-002
   10.340000000000000        5.4047152755306936E-002   9.4697191586609331E-003
   10.359999999999999        3.5472464982856507E-002   1.0112699543303046E-002
   10.380000000000001        4.2327062601326973E-002   1.1437933076661676E-002
   10.400000000000000        7.1364399713213483E-002   1.2032027018042709E-002
   10.420000000000000       0.10585663454193479        1.0960572034515326E-002
   10.440000000000000       0.12574135900979297        8.3013732152002022E-003
   10.460000000000001       0.11976813106592350        5.0596837102992081E-003
   10.480000000000000        9.2285391598607616E-002   2.5354471843023938E-003
   10.500000000000000        6.0579743890452800E-002   1.5389691980956255E-003
   10.520000000000000        4.4411459133204045E-002   1.9313911654348342E-003
   10.539999999999999        5.4102749110630718E-002   2.7569663016085454E-003
   10.560000000000000        8.4381553775237247E-002   2.8681447113438757E-003
   10.580000000000000       0.11766899834888180        1.6468855702133707E-003
   10.600000000000000       0.13477037972740774       -6.2405791877391818E-004
   10.619999999999999       0.12646435365938874       -2.9620623383088285E-003
   10.640000000000001        9.8978747267496933E-002  -4.3233885108452316E-003
   10.660000000000000        7.0080690693230599E-002  -4.2764224152235918E-003
   10.680000000000000        5.8208611536198204E-002  -3.2885021981913713E-003
   10.699999999999999        7.1273091464625696E-002  -2.4475494442908626E-003
   10.720000000000001       0.10191691085952849       -2.7907320217867163E-003
   10.740000000000000       0.13207279966526494       -4.6559322826896553E-003
   10.760000000000000       0.14400486837135529       -7.4586469593481515E-003
   10.779999999999999       0.13110031852456736       -1.0035791754824247E-002
   10.800000000000001       0.10186004686119811       -1.1349247610523939E-002
   10.820000000000000        7.4692023598946125E-002  -1.1119586707620461E-002
   10.840000000000000        6.6703350004345782E-002  -1.0000551606082906E-002
   10.859999999999999        8.3318097200304517E-002  -9.1834527489498535E-003
   10.880000000000001       0.11502289972949371       -9.6681944221008766E-003
   10.900000000000000       0.14319415491054849       -1.1642567447494655E-002
   10.920000000000000       0.15144060492270439       -1.4348775827953610E-002
   10.940000000000000       0.13555628252171581       -1.6523279663920889E-002
   10.960000000000001       0.10604087355090888       -1.7149842372944726E-002
   10.980000000000000        8.1672768725783051E-002  -1.6075309831520935E-002
   11.000000000000000        7.8057210435137900E-002  -1.4118032995468623E-002
   11.020000000000000        9.8116562598168769E-002  -1.2601523921158377E-002
   11.039999999999999       0.13029970497702356       -1.2588809075613969E-002
   11.060000000000000       0.15559335651941170       -1.4270402536287542E-002
   11.080000000000000       0.15907376288702585       -1.6865466572380059E-002
   11.100000000000000       0.13898506399118027       -1.9089069482838839E-002
   11.119999999999999       0.10783539796443851       -1.9903250873772749E-002
   11.140000000000001        8.4844782525241302E-002  -1.9106040657807775E-002
   11.160000000000000        8.4320269083207708E-002  -1.7416118863800081E-002
   11.180000000000000       0.10699796869672551       -1.6016084710573041E-002
   11.199999999999999       0.13959035145705040       -1.5839135807331796E-002
   11.220000000000001       0.16280798029564084       -1.7029827835327121E-002
   11.240000000000000       0.16300011540176604       -1.8895237646014074E-002
   11.260000000000000       0.14037871316992984       -2.0361407789447582E-002
   11.279999999999999       0.10886724523271828       -2.0645759533432971E-002
   11.300000000000001        8.7684065803925418E-002  -1.9732320927105095E-002
   11.320000000000000        8.9759111045424667E-002  -1.8364700132663388E-002
   11.340000000000000       0.11397843492082388       -1.7570194022180116E-002
   11.359999999999999       0.14591793226797711       -1.8013926833911988E-002
   11.380000000000001       0.16658896951830479       -1.9581522839141011E-002
   11.400000000000000       0.16388794590532657       -2.1444502982997198E-002
   11.420000000000000       0.13983489235982122       -2.2565007714901782E-002
   11.440000000000000       0.10926003028347996       -2.2328271138910435E-002
   11.460000000000001        9.0779169908083435E-002  -2.0915425391424720E-002
   11.480000000000000        9.5547417254999295E-002  -1.9190170528346165E-002
   11.500000000000000       0.12059061092163209       -1.8170722938177623E-002
   11.520000000000000       0.15071026178998767       -1.8410921604451843E-002
   11.539999999999999       0.16775533896003825       -1.9668049333602066E-002
   11.560000000000000       0.16160973266423234       -2.1058344055373057E-002
   11.580000000000000       0.13624091185900766       -2.1603045827215128E-002
   11.600000000000000       0.10718240090359506       -2.0830129444366897E-002
   11.619999999999999        9.2028477220242585E-002  -1.9063933112432967E-002
   11.640000000000001        9.9742582007155800E-002  -1.7225976111493291E-002
   11.660000000000000       0.12526930449430407       -1.6268513761679131E-002
   11.680000000000000       0.15269278737769124       -1.6586345175488904E-002
   11.699999999999999       0.16498617788845293       -1.7766258217386866E-002
   11.720000000000001       0.15440512805706111       -1.8829166671847392E-002
   11.740000000000000       0.12720781722408270       -1.8821461829563204E-002
   11.760000000000000        9.9846179738318358E-002  -1.7399972566974811E-002
   11.779999999999999        8.8956629775223908E-002  -1.5057146230253294E-002
   11.800000000000001       0.10123627358010280       -1.2847987175116692E-002
   11.820000000000000       0.12934898525934113       -1.1778317383327772E-002
   11.840000000000000       0.15633945031389856       -1.2216123616816807E-002
   11.859999999999999       0.16587332616964989       -1.3673619949896944E-002
   11.880000000000001       0.15209732541996362       -1.5086928086062325E-002
   11.900000000000000       0.12315436047775459       -1.5426024273496444E-002
   11.920000000000000        9.6240142931476758E-002  -1.4275423919250727E-002
   11.940000000000000        8.7208393734165612E-002  -1.2048732763797311E-002
   11.960000000000001       0.10102014750793527       -9.7210900599121967E-003
   11.980000000000000       0.12880450311855249       -8.2484488563197515E-003
   12.000000000000000       0.15328439899004376       -8.0216401768355775E-003
   12.020000000000000       0.15925966288285262       -8.6725436553555090E-003
   12.039999999999999       0.14279437127320724       -9.3325751458904673E-003
   12.060000000000000       0.11356067303149542       -9.1737094908085123E-003
   12.080000000000000        8.8946535827554921E-002  -7.9012705174065761E-003
   12.100000000000000        8.3516660203066320E-002  -5.9084463307818936E-003
   12.119999999999999       0.10021018467968461       -4.0145679308243396E-003
   12.140000000000001       0.12858565183514675       -2.9604402451208411E-003
   12.160000000000000       0.15114705988818578       -2.9724702694413916E-003
   12.180000000000000       0.15390192835035901       -3.6533355744102205E-003
   12.199999999999999       0.13476554033430238       -4.2493884775692704E-003
   12.220000000000001       0.10475633072872798       -4.1147556692946599E-003
   12.240000000000000        8.1303104727530690E-002  -3.0801150195800312E-003
   12.260000000000000        7.7746787701997097E-002  -1.5052407290994069E-003
   12.279999999999999        9.5389071849329807E-002   5.7722391192903016E-007
   12.300000000000001       0.12286031187581826        9.9771994443286242E-004
   12.320000000000000       0.14312636456161659        1.5004854944644945E-003
   12.340000000000000       0.14383735125911307        1.9450077623871785E-003
   12.359999999999999       0.12473336444327837        2.8665353307160261E-003
   12.380000000000001        9.7649824401083260E-002   4.5007791307538920E-003
   12.400000000000000        7.9179524963306047E-002   6.5752448279767896E-003
   12.420000000000000        8.0499893172838122E-002   8.4370658838338868E-003
   12.440000000000000       0.10056580050719195        9.4484265657656160E-003
   12.460000000000001       0.12678955163567202        9.4047333102897125E-003
   12.480000000000000       0.14275999009827978        8.7063077433988788E-003
   12.500000000000000       0.13827591370435977        8.1599774953052262E-003
   12.520000000000000       0.11557920421747071        8.5149567630029149E-003
   12.539999999999999        8.8002343302700139E-002   1.0007455104661679E-002
   12.560000000000000        7.1865919129638189E-002   1.2193646236160174E-002
   12.580000000000000        7.6561695086167156E-002   1.4183992900175477E-002
   12.600000000000000        9.8848846513125907E-002   1.5151946629866743E-002
   12.619999999999999       0.12482107518649406        1.4821585614441260E-002
   12.640000000000001       0.13834008915914014        1.3645113609668112E-002
   12.660000000000000       0.13081057326020737        1.2560798879672763E-002
   12.680000000000000       0.10636930408219220        1.2468674368721224E-002
   12.699999999999999        7.9354843535544978E-002   1.3727898440338473E-002
   12.720000000000001        6.5610503948520998E-002   1.5966501502954797E-002
   12.740000000000000        7.2905561596919438E-002   1.8309411240372515E-002
   12.760000000000000        9.6278032588768284E-002   1.9884935466643144E-002
   12.779999999999999       0.12110174129204282        2.0309842802640383E-002
   12.800000000000001       0.13199022786340200        1.9872939770600818E-002
   12.820000000000000       0.12211871178929058        1.9322148391618971E-002
   12.840000000000000        9.7310559790121098E-002   1.9397209989663985E-002
   12.859999999999999        7.2429292022599484E-002   2.0396334416064577E-002
   12.880000000000001        6.2293896692502480E-002   2.2034364785932188E-002
   12.900000000000000        7.2653153811441232E-002   2.3664548708281174E-002
   12.920000000000000        9.6704192347578544E-002   2.4711465217227748E-002
   12.940000000000000       0.11926011706466939        2.5036801645072163E-002
   12.960000000000001       0.12601979824889953        2.5008164059128857E-002
   12.980000000000000       0.11229556119479944        2.5231853551429210E-002
   13.000000000000000        8.5889085891244360E-002   2.6124185548091459E-002
   13.020000000000000        6.2364692121416536E-002   2.7599578151457530E-002
   13.039999999999999        5.5588961529903530E-002   2.9082624476413323E-002
   13.060000000000000        6.9282099445796677E-002   2.9849008645020967E-002
   13.080000000000000        9.4715612097628424E-002   2.9491217272025184E-002
   13.100000000000000       0.11596489333094862        2.8219295870022282E-002
   13.119999999999999       0.11954426579989988        2.6799382009094055E-002
   13.140000000000001       0.10259236725496212        2.6149380291209660E-002
   13.160000000000000        7.4648012848289619E-002   2.6821163548835718E-002
   13.180000000000000        5.1931520207779344E-002   2.8673873410933217E-002
   13.199999999999999        4.7577900446022475E-002   3.0935690926531159E-002
   13.220000000000001        6.3715422525420992E-002   3.2624372996188956E-002
   13.240000000000000        9.0168556249165116E-002   3.3085254318723591E-002
   13.260000000000000       0.11056560568086649        3.2336027789455025E-002
   13.279999999999999       0.11216715705688708        3.1022152942751405E-002
   13.300000000000001        9.3496750523054770E-002   3.0016749726316894E-002
   13.320000000000000        6.5192771230439719E-002   2.9906932357618130E-002
   13.340000000000000        4.3593899099019451E-002   3.0671040392520440E-002
   13.359999999999999        4.0942989827276143E-002   3.1732236542962519E-002
   13.380000000000001        5.8109606148294045E-002   3.2346332371809165E-002
   13.400000000000000        8.4184956559603785E-002   3.2082614326710356E-002
   13.420000000000000       0.10314315926368324        3.1104515638052256E-002
   13.440000000000000       0.10350967705660521        3.0081398562491615E-002
   13.460000000000001        8.5195591724942663E-002   2.9786659898636974E-002
   13.480000000000000        5.9405658426144065E-002   3.0625366050790661E-002
   13.500000000000000        4.1733134353195908E-002   3.2374577768558718E-002
   13.520000000000000        4.2663568415122685E-002   3.4289747842781451E-002
   13.539999999999999        6.1243751651074783E-002   3.5511486929218863E-002
   13.560000000000000        8.5720628844116006E-002   3.5531184912517950E-002
   13.580000000000000       0.10071815634930355        3.4445572297284073E-002
   13.600000000000000        9.6571385573138921E-002   3.2862777435869982E-002
   13.619999999999999        7.5160704560080838E-002   3.1532219195773092E-002
   13.640000000000001        4.8740179200842365E-002   3.0929645788423075E-002
   13.660000000000000        3.2510878392560845E-002   3.1042663991832576E-002
   13.680000000000000        3.5465973813843144E-002   3.1467537898725126E-002
   13.699999999999999        5.5048641455673564E-002   3.1731942950443397E-002
   13.720000000000001        7.8820040658712592E-002   3.1623278986632447E-002
   13.740000000000000        9.2072179325563247E-002   3.1309955508329324E-002
   13.760000000000000        8.6731458130034814E-002   3.1185076185123117E-002
   13.779999999999999        6.6152238469899483E-002   3.1545713121522760E-002
   13.800000000000001        4.2930559617687512E-002   3.2329008934787656E-002
   13.820000000000000        3.1122412989914659E-002   3.3090071003890276E-002
   13.840000000000000        3.7638807299613088E-002   3.3249239656942875E-002
   13.859999999999999        5.8060510289370912E-002   3.2458187584519349E-002
   13.880000000000001        7.9398340399987444E-002   3.0849824250084378E-002
   13.900000000000000        8.8085648287150597E-002   2.9002268720946637E-002
   13.920000000000000        7.8310333837923685E-002   2.7623897358997538E-002
   13.940000000000000        5.5602212237804413E-002   2.7144733913438857E-002
   13.960000000000001        3.3493552380646302E-002   2.7465875362481493E-002
   13.980000000000000        2.5292376061258882E-002   2.8027900944929525E-002
   14.000000000000000        3.5979741288970302E-002   2.8163992417144082E-002
   14.020000000000000        5.9160779246036521E-002   2.7523680619936184E-002
   14.039999999999999        8.0921197252826704E-002   2.6302230431557869E-002
   14.060000000000000        8.8242756060278801E-002   2.5124591129831602E-002
   14.080000000000000        7.6865231577965570E-002   2.4645403689173513E-002
   14.100000000000000        5.3825610740979635E-002   2.5108013035878771E-002
   14.119999999999999        3.3143521616414158E-002   2.6141413799453495E-002
   14.140000000000001        2.7284025822410036E-002   2.6937055455543053E-002
   14.160000000000000        3.9587016438088568E-002   2.6716383969810818E-002
   14.180000000000000        6.2257067763349487E-002   2.5214636709628042E-002
   14.199999999999999        8.1125615173461521E-002   2.2882912770164094E-002
   14.220000000000001        8.4285565520434438E-002   2.0669368308169248E-002
   14.240000000000000        6.9352356213672306E-002   1.9490863638963629E-002
   14.260000000000000        4.4944939955925356E-002   1.9698888115742282E-002
   14.279999999999999        2.5490580339941428E-002   2.0859068805151371E-002
   14.300000000000001        2.2505708569388425E-002   2.1986828512185381E-002
   14.320000000000000        3.7636532892390495E-002   2.2113495229740293E-002
   14.340000000000000        6.1669567971180929E-002   2.0856128690381396E-002
   14.359999999999999        8.0100639622718878E-002   1.8653032323801933E-002
   14.380000000000001        8.1880555129606361E-002   1.6517055523293321E-002
   14.400000000000000        6.6042062394658138E-002   1.5441707016608800E-002
   14.420000000000000        4.2209772504844145E-002   1.5804293652214679E-002
   14.440000000000000        2.4708580588592027E-002   1.7119770012859779E-002
   14.460000000000001        2.3861224557516405E-002   1.8299140352953436E-002
   14.480000000000000        3.9754842937826648E-002   1.8271633081413621E-002
   14.500000000000000        6.2243064352507586E-002   1.6613055207429204E-002
   14.520000000000000        7.7160258288414607E-002   1.3812843479936034E-002
   14.539999999999999        7.4960379982027023E-002   1.1017996652321541E-002
   14.560000000000000        5.6534424621535462E-002   9.3949803468232670E-003
   14.580000000000000        3.2684615347222015E-002   9.4741494138177694E-003
   14.600000000000000        1.7586442962286016E-002   1.0853813810301777E-002
   14.619999999999999        2.0211386177417662E-002   1.2434277119064353E-002
   14.640000000000001        3.8908252651951941E-002   1.3046003604405164E-002
   14.660000000000000        6.2414654478790160E-002   1.2108962816649142E-002
   14.680000000000000        7.6668433387114709E-002   9.9444245453711461E-003
   14.699999999999999        7.3281027909450222E-002   7.5645621614892260E-003
   14.720000000000001        5.4544000135891182E-002   6.0691764127447749E-003
   14.740000000000000        3.1957925258547008E-002   6.0048855653736894E-003
   14.760000000000000        1.9206134658020079E-002   7.0590993357927817E-003
   14.779999999999999        2.3855372330059552E-002   8.2610827324566347E-003
   14.800000000000001        4.2817743216183514E-002   8.5644892831672030E-003
   14.820000000000000        6.4306571024785916E-002   7.4651033196527416E-003
   14.840000000000000        7.5068701439513844E-002   5.2922328643007907E-003
   14.859999999999999        6.8477977146729083E-002   3.0084799831315411E-003
   14.880000000000001        4.8566240726879324E-002   1.6425924672526934E-003
   14.900000000000000        2.7549877283124295E-002   1.6924732046916639E-003
   14.920000000000000        1.8367879122160119E-002   2.8468630588712614E-003
   14.940000000000000        2.6776410310640483E-002   4.1812762036691339E-003
   14.960000000000001        4.7808853966254235E-002   4.7032575981744403E-003
   14.980000000000000        6.8754581946932680E-002   3.9204320387148522E-003
   15.000000000000000        7.6850611197491703E-002   2.0993354985792590E-003
   15.020000000000000        6.7021412564871000E-002   7.3140767598302094E-005
   15.039999999999999        4.4975132009229785E-002  -1.2740054922767750E-003
   15.060000000000000        2.3781051783011237E-002  -1.5303818101247357E-003
   15.080000000000000        1.6001630214995288E-002  -9.7584885937014403E-004
   15.100000000000000        2.6139062141871085E-002  -3.7430091885496877E-004
   15.119999999999999        4.7956875924341925E-002  -4.7598133963048053E-004
   15.140000000000001        6.8279194960752951E-002  -1.5387598132097402E-003
   15.160000000000000        7.4951416205245910E-002  -3.1613492535266111E-003
   15.180000000000000        6.4140434664069851E-002  -4.5287168662715583E-003
   15.199999999999999        4.2571712626099448E-002  -4.9183407392247294E-003
   15.220000000000001        2.3380557751401791E-002  -4.1573825857433612E-003
   15.240000000000000        1.8122021937840491E-002  -2.7501813624058241E-003
   15.260000000000000        2.9794113609053631E-002  -1.5943055407557829E-003
   15.279999999999999        5.1090131164813653E-002  -1.4518453186510188E-003
   15.300000000000001        6.8907036573922567E-002  -2.4916094775186528E-003
   15.320000000000000        7.2340501995342268E-002  -4.1782983628567590E-003
   15.340000000000000        5.9296949219928057E-002  -5.5801537191715427E-003
   15.359999999999999        3.7715211579131207E-002  -5.9186734971496437E-003
   15.380000000000001        2.0680860137665572E-002  -5.0396066753597467E-003
   15.400000000000000        1.8429206165576861E-002  -3.5285826852102624E-003
   15.420000000000000        3.2113232823028408E-002  -2.4007321534158126E-003
   15.440000000000000        5.3124328114917727E-002  -2.5399912467254427E-003
   15.460000000000001        6.8366288534643826E-002  -4.2065523712461958E-003
   15.480000000000000        6.8260413033934444E-002  -6.8885877251356016E-003
   15.500000000000000        5.2603220120718053E-002  -9.5745356758106422E-003
   15.520000000000000        3.0710887624247795E-002  -1.1283548704128654E-002
   15.539999999999999        1.5763221660820202E-002  -1.1552644168760163E-002
   15.560000000000000        1.6787857712180179E-002  -1.0616668284899551E-002
   15.580000000000000        3.3159040915100149E-002  -9.2035034611883271E-003
   15.600000000000000        5.4956213407122645E-002  -8.0885646244387207E-003
   15.619999999999999        6.8967440052888795E-002  -7.6795912127581292E-003
   15.640000000000001        6.6695074544884880E-002  -7.8654463170063985E-003
   15.660000000000000        4.9506598468600074E-002  -8.1907913454858025E-003
   15.680000000000000        2.7807224096051696E-002  -8.2201403134599445E-003
   15.699999999999999        1.4737836501743070E-002  -7.8494030119451979E-003
   15.720000000000001        1.8220028027368301E-002  -7.3698820596445960E-003
   15.740000000000000        3.6167409477260860E-002  -7.2542860335461342E-003
   15.760000000000000        5.7757445875239545E-002  -7.8119791652253787E-003
   15.779999999999999        6.9982227821938442E-002  -8.9417768577381186E-003
   15.800000000000001        6.5501155340523989E-002  -1.0147150012654158E-002
   15.820000000000000        4.7039692658687633E-002  -1.0812254252528863E-002
   15.840000000000000        2.5683532131653215E-002  -1.0571834534230854E-002
   15.859999999999999        1.4124305562824627E-002  -9.5459831884204364E-003
   15.880000000000001        1.8970098192884175E-002  -8.2900156994425052E-003
   15.900000000000000        3.6788496346284276E-002  -7.4818000034713450E-003
   15.920000000000000        5.6270530178143520E-002  -7.5288351860557517E-003
   15.940000000000000        6.5179648825111250E-002  -8.3280863556057377E-003
   15.960000000000001        5.7844430524608373E-002  -9.3223734855618027E-003
   15.980000000000000        3.8630316797188501E-002  -9.8217646361759992E-003
   16.000000000000000        1.9277487246338619E-002  -9.4021033540112008E-003
   16.020000000000000        1.1726738591080102E-002  -8.1484719446385922E-003
   16.039999999999999        2.0802601985632115E-002  -6.6043217733284436E-003
   16.059999999999999        4.1213580667805033E-002  -5.4605169059307760E-003
   16.079999999999998        6.0708073952559650E-002  -5.1689797539051108E-003
   16.100000000000001        6.7483060686486351E-002  -5.7047958346918655E-003
   16.120000000000001        5.7353143552749258E-002  -6.6079215697695511E-003
   16.140000000000001        3.6323560578996807E-002  -7.2688941495905914E-003
   16.160000000000000        1.6992096751173136E-002  -7.2823803159387020E-003
   16.180000000000000        1.0946116824623951E-002  -6.6600741313586039E-003
   16.199999999999999        2.1753589508950451E-002  -5.7859739909638698E-003
   16.219999999999999        4.2794692330789245E-002  -5.1541311791811475E-003
   16.239999999999998        6.1254530178367239E-002  -5.0561542075336597E-003
   16.260000000000002        6.5868592872534285E-002  -5.4085199184687738E-003
   16.280000000000001        5.3738731832570559E-002  -5.8182502359767664E-003
   16.300000000000001        3.2095962424276307E-002  -5.8385049644189549E-003
   16.320000000000000        1.3940087786444979E-002  -5.2530715759666032E-003
   16.340000000000000        1.0187755324501410E-002  -4.2168069184003463E-003
   16.359999999999999        2.3071289908313235E-002  -3.1712791381158035E-003
   16.379999999999999        4.4774853699397765E-002  -2.5919550134934971E-003
   16.399999999999999        6.2130610620811731E-002  -2.7212364242915951E-003
   16.420000000000002        6.4539376397152654E-002  -3.4432383377404952E-003
   16.440000000000001        5.0338098400649130E-002  -4.3646646629169452E-003
   16.460000000000001        2.7780890546492021E-002  -5.0409728580595621E-003
   16.480000000000000        1.0055946137717105E-002  -5.2055877369557718E-003
   16.500000000000000        7.3571526155663076E-003  -4.8694511771794216E-003
   16.520000000000000        2.0794694706092368E-002  -4.2478865627277379E-003
   16.539999999999999        4.1802620607807123E-002  -3.5816876142258616E-003
   16.559999999999999        5.7371992005149745E-002  -2.9795614326655205E-003
   16.579999999999998        5.7923309361646975E-002  -2.3838321212915664E-003
   16.600000000000001        4.3054729546548168E-002  -1.6707053207397700E-003
   16.620000000000001        2.1708746745986954E-002  -8.0206223257424836E-004
   16.640000000000001        6.6892959334175876E-003   8.9489810552328852E-005
   16.660000000000000        6.8769227166441058E-003   7.5347399110900915E-004
   16.680000000000000        2.1866175780426787E-002   9.8535686017174932E-004
   16.699999999999999        4.2261713255875778E-002   7.9099289718528550E-004
   16.719999999999999        5.5428544473034747E-002   4.3023222225448154E-004
   16.739999999999998        5.3187382464274485E-002   2.9057810768469872E-004
   16.760000000000002        3.6778946233262708E-002   6.5386609324453060E-004
   16.780000000000001        1.6091613272574485E-002   1.4985008437420624E-003
   16.800000000000001        3.6347197178125362E-003   2.4718928970367230E-003
   16.820000000000000        6.9264733123781969E-003   3.0710971544193845E-003
   16.840000000000000        2.3920124341974821E-002   2.9400996818250264E-003
   16.859999999999999        4.4240936909661605E-002   2.1099865736838096E-003
   16.879999999999999        5.5477359513753648E-002   1.0285264412652304E-003
   16.899999999999999        5.0705047848416895E-002   3.4269229518206815E-004
   16.920000000000002        3.2679111113292240E-002   5.4514941796923223E-004
   16.940000000000001        1.2155187287428244E-002   1.6852164240977277E-003
   16.960000000000001        1.3623186517668609E-003   3.3187217135845011E-003
   16.980000000000000        6.5890372684228567E-003   4.7393688693200845E-003
   17.000000000000000        2.4378478221031889E-002   5.3706544679720091E-003
   17.020000000000000        4.3637373279944644E-002   5.0979740949143853E-003
   17.039999999999999        5.2377541792034618E-002   4.3465148059739509E-003
   17.059999999999999        4.5000860356605284E-002   3.8508623326732471E-003
   17.079999999999998        2.5709843927319474E-002   4.2383122455700870E-003
   17.100000000000001        5.9735268875072151E-003   5.6581757070822934E-003
   17.120000000000001       -2.4206158571611330E-003   7.6686797687356032E-003
   17.140000000000001        5.4761180940181243E-003   9.4510993792517942E-003
   17.160000000000000        2.4741469977887443E-002   1.0237435359426931E-002
   17.180000000000000        4.3516713267406797E-002   9.7175914326312861E-003
   17.199999999999999        5.0143575500119143E-002   8.2031378637956471E-003
   17.219999999999999        4.0199960184224490E-002   6.4606505222743176E-003
   17.239999999999998        1.9191012410357058E-002   5.3105090502682624E-003
   17.260000000000002       -7.2733521992242962E-004   5.2133423437751309E-003
   17.280000000000001       -8.0190311057017610E-003   6.0662587476971713E-003
   17.300000000000001        1.3417034576216527E-003   7.3079152209910535E-003
   17.320000000000000        2.1496155409929121E-002   8.2582442652673269E-003
   17.340000000000000        4.0251509964792695E-002   8.4942322721107723E-003
   17.359999999999999        4.6398898948049092E-002   8.0552307561851458E-003
   17.379999999999999        3.6389147054791807E-002   7.3787060116735524E-003
   17.399999999999999        1.6366680645856446E-002   7.0234056433593510E-003
   17.420000000000002       -1.6238608005387889E-003   7.3505510798177586E-003
   17.440000000000001       -6.9331483059432136E-003   8.3429716336457290E-003
   17.460000000000001        3.3091910668856675E-003   9.6487556039993334E-003
   17.480000000000000        2.2553981632123764E-002   1.0800951603840512E-002
   17.500000000000000        3.8879637615013479E-002   1.1469470053731255E-002
   17.520000000000000        4.2236852737024398E-002   1.1598373796537388E-002
   17.539999999999999        3.0492987012732266E-002   1.1365721727103411E-002
   17.559999999999999        1.0638746255641332E-002   1.1016887821750641E-002
   17.579999999999998       -5.5290323730637862E-003   1.0694337313733577E-002
   17.600000000000001       -8.5905800518051040E-003   1.0375664072298290E-002
   17.620000000000001        2.8183468727358504E-003   9.9497230576939440E-003
   17.640000000000001        2.1259774129690313E-002   9.3642072306869707E-003
   17.660000000000000        3.5093483036139676E-002   8.7301931430193679E-003
   17.680000000000000        3.5594615590521454E-002   8.3000048145841950E-003
   17.699999999999999        2.2250629182443742E-002   8.3227997448307601E-003
   17.719999999999999        3.0296663293468691E-003   8.8692509520800020E-003
   17.739999999999998       -1.0517067337451965E-002   9.7450064114909547E-003
   17.760000000000002       -1.0317636207896295E-002   1.0562245966086301E-002
   17.780000000000001        3.2972684111461504E-003   1.0940113163126061E-002
   17.800000000000001        2.1797602348468833E-002   1.0720056762944069E-002
   17.820000000000000        3.3646574746377715E-002   1.0065697499355628E-002
   17.840000000000000        3.1315042169838672E-002   9.3812905082143513E-003
   17.859999999999999        1.5853349112346829E-002   9.0902814220780483E-003
   17.879999999999999       -3.7483679710111060E-003   9.4004648847996874E-003
   17.899999999999999       -1.6009442981071546E-002   1.0192245954635165E-002
   17.920000000000002       -1.3899081755293176E-002   1.1094342639547653E-002
   17.940000000000001        9.4349396227330097E-004   1.1700093550023221E-002
   17.960000000000001        1.9255038750419194E-002   1.1794605172708496E-002
   17.980000000000000        2.9801874967493678E-002   1.1458537960521971E-002
   18.000000000000000        2.6189604362734663E-002   1.0990821184402273E-002
   18.020000000000000        1.0690343731579736E-002   1.0703091273097209E-002
   18.039999999999999       -7.2219698087886332E-003   1.0715649494142008E-002
   18.059999999999999       -1.6711318274364974E-002   1.0881481882285096E-002
   18.079999999999998       -1.2218794120342991E-002   1.0883992386570410E-002
   18.100000000000001        3.1504353093144886E-003   1.0445807408857307E-002
   18.120000000000001        1.9552790180353979E-002   9.5171783075018689E-003
   18.140000000000001        2.6462199711207047E-002   8.3254448027987454E-003
   18.160000000000000        1.9154657486222988E-002   7.2534624396205860E-003
   18.180000000000000        1.6567229544230384E-003   6.6211745783781549E-003
   18.199999999999999       -1.5654252615793361E-002   6.5047315388664347E-003
   18.219999999999999       -2.2352068926525637E-002   6.7043542648489735E-003
   18.239999999999998       -1.4337373307805870E-002   6.8798261406048623E-003
   18.260000000000002        3.5979361253308173E-003   6.7683249608529233E-003
   18.280000000000001        2.0596681602100146E-002   6.3480857947347110E-003
   18.300000000000001        2.6261432384719875E-002   5.8452718039336583E-003
   18.320000000000000        1.6936963508878904E-002   5.5797572238866040E-003
   18.340000000000000       -2.0550559137898199E-003   5.7472859629526989E-003
   18.359999999999999       -1.9591507274331128E-002   6.2769458549638175E-003
   18.379999999999999       -2.5425030152915473E-002   6.8573366572852934E-003
   18.399999999999999       -1.6336394268327673E-002   7.1195255766859462E-003
   18.420000000000002        1.9480704659452081E-003   6.8649677799589425E-003
   18.440000000000001        1.8225101119851761E-002   6.1948820330414087E-003
   18.460000000000001        2.2568045437837941E-002   5.4555270517105004E-003
   18.480000000000000        1.2285828539134505E-002   5.0272775892039314E-003
   18.500000000000000       -6.5025338737031198E-003   5.0847781770528584E-003
   18.520000000000000       -2.2610675792699830E-002   5.4782419522706608E-003
   18.539999999999999       -2.6563997872364360E-002   5.8156711480223458E-003
   18.559999999999999       -1.6308230746919426E-002   5.7032544534201283E-003
   18.579999999999998        1.5973187917896407E-003   5.0007912151321275E-003
   18.600000000000001        1.6003420466958167E-002   3.9335246852592320E-003
   18.620000000000001        1.7954154993624204E-002   2.9835735482935510E-003
   18.640000000000001        6.1105362318488810E-003   2.6162116904266315E-003
   18.660000000000000       -1.2467622967415310E-002   2.9994384803712520E-003
   18.680000000000000       -2.6641113981627398E-002   3.8858557962514846E-003
   18.699999999999999       -2.7977706296505898E-002   4.7346054399388894E-003
   18.719999999999999       -1.5880973050580376E-002   5.0102073248989290E-003
   18.739999999999998        2.0500431599984330E-003   4.4879769810085325E-003
   18.760000000000002        1.4644362207894708E-002   3.3872740487832561E-003
   18.780000000000001        1.3956560340660189E-002   2.2512798399783531E-003
   18.800000000000001        1.1211996020780068E-004   1.6393229693376743E-003
   18.820000000000000       -1.8740329963049352E-002   1.8083523572328039E-003
   18.840000000000000       -3.1344593429127467E-002   2.5680649649528729E-003
   18.859999999999999       -3.0146048728427341E-002   3.3937255075805815E-003
   18.879999999999999       -1.5873812973918159E-002   3.7303741862763527E-003
   18.899999999999999        2.8764547831684160E-003   3.3103544460821800E-003
   18.920000000000002        1.4807599323817313E-002   2.2989437735444289E-003
   18.940000000000001        1.2713838099071031E-002   1.1846623781514300E-003
   18.960000000000001       -2.1977109329461065E-003   4.8143204341362698E-004
   18.980000000000000       -2.1057441775931433E-002   4.2014232086564550E-004
   19.000000000000000       -3.2690584170870424E-002   8.1225592803198070E-004
   19.020000000000000       -3.0339298109907348E-002   1.1652713683360054E-003
   19.039999999999999       -1.5695253410007118E-002   9.8049774933726681E-004
   19.059999999999999        2.1742979029927257E-003   5.6329358603872172E-005
   19.079999999999998        1.2334115986625245E-002  -1.3817672656276543E-003
   19.100000000000001        8.5782315625659283E-003  -2.7996940132075307E-003
   19.120000000000001       -6.8679277214305718E-003  -3.6498244165454503E-003
   19.140000000000001       -2.4756912341426646E-002  -3.6683702919558855E-003
   19.160000000000000       -3.4457557520894910E-002  -3.0026272357808531E-003
   19.180000000000000       -3.0389013792350338E-002  -2.0998096800020670E-003
   19.199999999999999       -1.5354780421016054E-002  -1.4319036776051595E-003
   19.219999999999999        1.2226445314301151E-003  -1.2264321066315547E-003
   19.239999999999998        9.0681830471604878E-003  -1.3646158828521770E-003
   19.260000000000002        3.3043633592589237E-003  -1.5025398378014840E-003
   19.280000000000001       -1.2610110286484033E-002  -1.3327612922033479E-003
   19.300000000000001       -2.9025370297474592E-002  -8.1761732020381981E-004
   19.320000000000000       -3.6009899971595358E-002  -2.4367356480457363E-004
   19.340000000000000       -2.9423454642006259E-002  -5.8146733483327327E-005
   19.359999999999999       -1.3460231457726514E-002  -5.8478932495455464E-004
   19.379999999999999        1.8827246765739567E-003  -1.7950359431814155E-003
   19.399999999999999        6.8756284158180544E-003  -3.2815232040077007E-003
   19.420000000000002       -2.0169345915332353E-003  -4.4613812440636473E-003
   19.440000000000001       -1.9944931371515474E-002  -4.8973178866281927E-003
   19.460000000000001       -3.6546688570648668E-002  -4.5495578751246013E-003
   19.480000000000000       -4.2151626201679851E-002  -3.8074053592707562E-003
   19.500000000000000       -3.3566870198778347E-002  -3.2758905427079381E-003
   19.520000000000000       -1.5962011680865945E-002  -3.4363383286312669E-003
   19.539999999999999        2.6902047977621222E-004  -4.3748663795397571E-003
   19.559999999999999        5.7560056343990565E-003  -5.7348276738513494E-003
   19.579999999999998       -2.2695353063862038E-003  -6.9199056432459804E-003
   19.600000000000001       -1.8421897079169088E-002  -7.4297672134927507E-003
   19.620000000000001       -3.2539906076631812E-002  -7.1347873255476306E-003
   19.640000000000001       -3.5916788455046707E-002  -6.3341581841589540E-003
   19.660000000000000       -2.6588544267547479E-002  -5.5696344581818800E-003
   19.680000000000000       -1.0479671813727486E-002  -5.3093297324448624E-003
   19.699999999999999        2.2668958950922721E-003  -5.6887876432139247E-003
   19.719999999999999        3.5231742053369007E-003  -6.4581862944762631E-003
   19.739999999999998       -7.8285080156378639E-003  -7.1592823040340595E-003
   19.760000000000002       -2.5177353804144882E-002  -7.4189296607812486E-003
   19.780000000000001       -3.8178199265562381E-002  -7.1789986330508815E-003
   19.800000000000001       -3.9030603265004259E-002  -6.7241843957295318E-003
   19.820000000000000       -2.7231008023755880E-002  -6.4933801766036189E-003
   19.840000000000000       -9.9148571576566993E-003  -6.7919247882680259E-003
   19.859999999999999        2.4201920727074423E-003  -7.5822197477138694E-003
   19.879999999999999        2.2229591265905532E-003  -8.4832246006278471E-003
   19.899999999999999       -1.0581959587328722E-002  -8.9836197694691828E-003
   19.920000000000002       -2.8571336436804474E-002  -8.7442749385778021E-003
   19.940000000000001       -4.1303974168535144E-002  -7.8102180397261875E-003
   19.960000000000001       -4.1583214282850313E-002  -6.6037194481293896E-003
   19.980000000000000       -2.9716965239781339E-002  -5.6980907716075247E-003
   20.000000000000000       -1.3221089522788268E-002  -5.5008091567351246E-003
   20.020000000000000       -2.1813312192540679E-003  -6.0286467394721349E-003
   20.039999999999999       -3.1144936472956284E-003  -6.9049391054301383E-003
   20.059999999999999       -1.5061520904619513E-002  -7.5808908032987850E-003
   20.079999999999998       -3.0269874473083755E-002  -7.6538006107378714E-003
   20.100000000000001       -3.9022681307635469E-002  -7.1000356389778058E-003
   20.120000000000001       -3.5651357505583736E-002  -6.2905668472493003E-003
   20.140000000000001       -2.2056279010490107E-002  -5.7818854096339471E-003
   20.160000000000000       -6.5846433886102484E-003  -6.0024178227299461E-003
   20.180000000000000        1.0544727102034916E-003  -7.0114831769985918E-003
   20.199999999999999       -4.2576316347759267E-003  -8.4636041256595969E-003
   20.219999999999999       -1.9858247941325360E-002  -9.7932952484911014E-003
   20.239999999999998       -3.6829578373878201E-002  -1.0512947681575171E-002
   20.260000000000002       -4.5336121264613845E-002  -1.0458137982181310E-002
   20.280000000000001       -4.0550970197301556E-002  -9.8506660438017618E-003
   20.300000000000001       -2.5583926642602096E-002  -9.1554387031234641E-003
   20.320000000000000       -9.6318662738020845E-003  -8.8204060163128255E-003
   20.340000000000000       -2.4576603556786336E-003  -9.0458808799894191E-003
   20.359999999999999       -8.5221097901355142E-003  -9.7027254631526297E-003
   20.379999999999999       -2.4303272704799504E-002  -1.0429057440368220E-002
   20.399999999999999       -4.0414397926836446E-002  -1.0837113255085370E-002
   20.420000000000002       -4.7239561770036596E-002  -1.0710674406716927E-002
   20.440000000000001       -4.0692003680209650E-002  -1.0092760718648661E-002
   20.460000000000001       -2.4637077064154231E-002  -9.2346694720085425E-003
   20.480000000000000       -8.5412293981557037E-003  -8.4547267451014207E-003
   20.500000000000000       -1.7854459785334978E-003  -7.9939908525730012E-003
   20.520000000000000       -8.0784684409976586E-003  -7.9400121549767725E-003
   20.539999999999999       -2.3322524505890188E-002  -8.2366859107891582E-003
   20.559999999999999       -3.8183066068674359E-002  -8.7462014094089983E-003
   20.579999999999998       -4.3772609554321711E-002  -9.3101873917114386E-003
   20.600000000000001       -3.6995611085649735E-002  -9.7777769128930339E-003
   20.620000000000001       -2.2334649512143517E-002  -1.0007464352151059E-002
   20.640000000000001       -9.0336701813880354E-003  -9.8753728995799005E-003
   20.660000000000000       -5.4246837516620855E-003  -9.3149774016116002E-003
   20.680000000000000       -1.3859013490210563E-002  -8.3784473283718304E-003
   20.699999999999999       -2.9312411064572493E-002  -7.2751977894508196E-003
   20.719999999999999       -4.2485147514031367E-002  -6.3385982235564416E-003
   20.739999999999998       -4.5486112587441244E-002  -5.9071092692709040E-003
   20.760000000000002       -3.6632350027201839E-002  -6.1628302605818133E-003
   20.780000000000001       -2.1450520555318878E-002  -7.0117074724898943E-003
   20.800000000000001       -9.2875389089832373E-003  -8.0840049746251710E-003
   20.820000000000000       -7.6080379628822520E-003  -8.8768820829730598E-003
   20.840000000000000       -1.7454346188536838E-002  -8.9817596945899608E-003
   20.859999999999999       -3.2826700479056448E-002  -8.2838384560062778E-003
   20.879999999999999       -4.4350851855883576E-002  -7.0256868195748209E-003
   20.899999999999999       -4.4993823281966633E-002  -5.6938140830508780E-003
   20.920000000000002       -3.4349300534167751E-002  -4.7817877922830309E-003
   20.940000000000001       -1.8890430496548698E-002  -4.5524463798064432E-003
   20.960000000000001       -8.0421471100804252E-003  -4.9243321896949698E-003
   20.980000000000000       -8.4639075179215699E-003  -5.5401626907232489E-003
   21.000000000000000       -2.0015896210808529E-002  -5.9750617665733224E-003
   21.020000000000000       -3.5853873656415548E-002  -5.9661975035901855E-003
   21.039999999999999       -4.6588090488120279E-002  -5.5369296534323086E-003
   21.059999999999999       -4.5975775442021742E-002  -4.9520990361523933E-003
   21.079999999999998       -3.4690505915615365E-002  -4.5393533627085423E-003
   21.100000000000001       -1.9884287429384414E-002  -4.4870212370599133E-003
   21.120000000000001       -1.0814625756963313E-002  -4.7383746285043051E-003
   21.140000000000001       -1.3196694265814189E-002  -5.0409105230492428E-003
   21.160000000000000       -2.5712260201880655E-002  -5.1149363914826827E-003
   21.180000000000000       -4.0796751530924963E-002  -4.8348259427131168E-003
   21.199999999999999       -4.9230358564199210E-002  -4.3107675010916283E-003
   21.219999999999999       -4.5752271400914708E-002  -3.8211080393369097E-003
   21.239999999999998       -3.2295658479177897E-002  -3.6373131121182553E-003
   21.260000000000002       -1.6879054642803770E-002  -3.8494544283748313E-003
   21.280000000000001       -8.8150575064129214E-003  -4.3003504923453673E-003
   21.300000000000001       -1.3121077449291184E-002  -4.6710690288899589E-003
   21.320000000000000       -2.7496856083098785E-002  -4.6689527674702780E-003
   21.340000000000000       -4.3683787880626844E-002  -4.2067132226432571E-003
   21.359999999999999       -5.2382096332919112E-002  -3.4650049877780831E-003
   21.379999999999999       -4.8768021423784357E-002  -2.7989278563113900E-003
   21.399999999999999       -3.5307766689707108E-002  -2.5405597734044260E-003
   21.420000000000002       -2.0207178782237330E-002  -2.8105883910001950E-003
   21.440000000000001       -1.2465848295804561E-002  -3.4467309332273715E-003
   21.460000000000001       -1.6531817446348754E-002  -4.0888401912398458E-003
   21.480000000000000       -2.9761699178300557E-002  -4.3709697715880111E-003
   21.500000000000000       -4.4169232513810636E-002  -4.1117732500383121E-003
   21.520000000000000       -5.1347090486561123E-002  -3.3996595474302359E-003
   21.539999999999999       -4.7547378680828041E-002  -2.5328773363820804E-003
   21.559999999999999       -3.5846904734634130E-002  -1.8576970489793377E-003
   21.579999999999998       -2.4124076397389522E-002  -1.6009652751827420E-003
   21.600000000000001       -2.0129621449962505E-002  -1.7872964550147850E-003
   21.620000000000001       -2.6688609424315238E-002  -2.2733995708415873E-003
   21.640000000000001       -3.9967320213776018E-002  -2.8604895050215406E-003
   21.660000000000000       -5.1850491620567624E-002  -3.4046359931533729E-003
   21.680000000000000       -5.4959820073911952E-002  -3.8573753838684732E-003
   21.699999999999999       -4.7235228676581101E-002  -4.2234804832857638E-003
   21.719999999999999       -3.3271508219731794E-002  -4.4818195008159102E-003
   21.739999999999998       -2.1583580216982860E-002  -4.5395752814500374E-003
   21.760000000000002       -1.9455239643115380E-002  -4.2641830206299079E-003
   21.780000000000001       -2.8499728799647156E-002  -3.5790129039026154E-003
   21.800000000000001       -4.3632770714210768E-002  -2.5576401782196581E-003
   21.820000000000000       -5.6092186708851313E-002  -1.4431221395700459E-003
   21.840000000000000       -5.8688160206400865E-002  -5.6128264353822973E-004
   21.859999999999999       -5.0118989529590638E-002  -1.6528417648881084E-004
   21.879999999999999       -3.5752843333284073E-002  -2.9917332663802171E-004
   21.899999999999999       -2.4409997259952076E-002  -7.6624076610048932E-004
   21.920000000000002       -2.3088978674019107E-002  -1.2312578942092285E-003
   21.940000000000001       -3.2809501446671809E-002  -1.4061119494341184E-003
   21.960000000000001       -4.8058763604131999E-002  -1.2143603749279986E-003
   21.980000000000000       -6.0148614127336159E-002  -8.3665363977507734E-004
   22.000000000000000       -6.2440089012485739E-002  -6.0506357448270899E-004
   22.020000000000000       -5.4285453017932278E-002  -8.0273652228403933E-004
   22.039999999999999       -4.1333601471405829E-002  -1.4835740987224782E-003
   22.059999999999999       -3.2049584200352338E-002  -2.4188275240026691E-003
   22.079999999999998       -3.2575389837605620E-002  -3.2062529152985493E-003
   22.100000000000001       -4.3037103347518334E-002  -3.4835319793526426E-003
   22.120000000000001       -5.7506567348449847E-002  -3.1261176498274951E-003
   22.140000000000001       -6.7610577631199140E-002  -2.3172508713077663E-003
   22.160000000000000       -6.7591496076845045E-002  -1.4507754155549265E-003
   22.180000000000000       -5.7774173325374996E-002  -9.2302490837244361E-004
   22.199999999999999       -4.4379147935262916E-002  -9.3234508462742346E-004
   22.219999999999999       -3.5827566114971801E-002  -1.3974230831129855E-003
   22.239999999999998       -3.7771301090483947E-002  -2.0336738482032318E-003
   22.260000000000002       -4.9804872170290247E-002  -2.5339393431792405E-003
   22.280000000000001       -6.5765449526574246E-002  -2.7412836380151348E-003
   22.300000000000001       -7.7365545138828859E-002  -2.7119938458127204E-003
   22.320000000000000       -7.8945003670579744E-002  -2.6384417712138814E-003
   22.340000000000000       -7.0538470575350870E-002  -2.6895967886487694E-003
   22.359999999999999       -5.7546381025600071E-002  -2.8773256280082600E-003
   22.379999999999999       -4.7366797596296757E-002  -3.0382720123177799E-003
   22.399999999999999       -4.5118442686937203E-002  -2.9456335861509923E-003
   22.420000000000002       -5.1006124796579962E-002  -2.4796171958805530E-003
   22.440000000000001       -6.0746881703167936E-002  -1.7435788870360693E-003
   22.460000000000001       -6.8541529640896492E-002  -1.0422319472270030E-003
   22.480000000000000       -7.0561689069562575E-002  -7.2244965831242520E-004
   22.500000000000000       -6.6748179969845306E-002  -9.6523224480168500E-004
   22.520000000000000       -5.9940683848641783E-002  -1.6546055875503081E-003
   22.539999999999999       -5.3157021200054416E-002  -2.4104922156977441E-003
   22.559999999999999       -4.7042178216028241E-002  -2.7786063676945960E-003
   22.579999999999998       -3.9340651120655726E-002  -2.4761368711956112E-003
